<?xml version="1.0" encoding="UTF-8" standalone="no"?>
<svg
   viewBox="0 0 192 152"
   style="display:inline;enable-background:new"
   version="1.0"
   inkscape:output_extension="org.inkscape.output.svg.inkscape"
   sodipodi:docname="org.gnome.Endeavour.Source.svg"
   inkscape:version="1.2.1 (9c6d41e410, 2022-07-14)"
   sodipodi:version="0.32"
   id="svg11300"
   height="152"
   width="192"
   inkscape:export-filename="Template.png"
   inkscape:export-xdpi="96"
   inkscape:export-ydpi="96"
   xmlns:inkscape="http://www.inkscape.org/namespaces/inkscape"
   xmlns:sodipodi="http://sodipodi.sourceforge.net/DTD/sodipodi-0.dtd"
   xmlns:xlink="http://www.w3.org/1999/xlink"
   xmlns="http://www.w3.org/2000/svg"
   xmlns:svg="http://www.w3.org/2000/svg"
   xmlns:rdf="http://www.w3.org/1999/02/22-rdf-syntax-ns#"
   xmlns:cc="http://creativecommons.org/ns#"
   xmlns:dc="http://purl.org/dc/elements/1.1/">
  <title
     id="title4162">Adwaita Icon Template</title>
  <defs
     id="defs3">
    <linearGradient
       inkscape:collect="always"
       id="linearGradient14298">
      <stop
         style="stop-color:#62a0ea;stop-opacity:1"
         offset="0"
         id="stop14292" />
      <stop
         style="stop-color:#9141ac;stop-opacity:1"
         offset="0.56395853"
         id="stop14294" />
      <stop
         style="stop-color:#ed333b;stop-opacity:1"
         offset="1"
         id="stop14296" />
    </linearGradient>
    <linearGradient
       inkscape:collect="always"
       xlink:href="#linearGradient14298"
       id="linearGradient1115"
       x1="19.999998"
       y1="201.11803"
       x2="112.77859"
       y2="269.44785"
       gradientUnits="userSpaceOnUse" />
  </defs>
  <sodipodi:namedview
     inkscape:document-rotation="0"
     borderlayer="true"
     inkscape:snap-text-baseline="true"
     inkscape:snap-smooth-nodes="true"
     inkscape:snap-midpoints="true"
     inkscape:snap-object-midpoints="true"
     inkscape:snap-center="true"
     showborder="true"
     inkscape:snap-bbox-midpoints="true"
     inkscape:snap-bbox-edge-midpoints="true"
     inkscape:snap-intersection-paths="true"
     inkscape:object-paths="true"
     inkscape:snap-global="true"
     inkscape:bbox-nodes="true"
     inkscape:object-nodes="true"
     inkscape:measure-end="0,0"
     inkscape:measure-start="0,0"
     inkscape:locked="false"
     inkscape:guide-bbox="true"
     showguides="false"
     inkscape:pagecheckerboard="false"
     inkscape:window-maximized="1"
     guidetolerance="13"
     gridtolerance="12"
     objecttolerance="7"
     inkscape:snap-bbox="false"
     inkscape:snap-nodes="true"
     height="300px"
     width="400px"
     inkscape:window-y="0"
     inkscape:window-x="0"
     inkscape:window-height="1016"
     inkscape:window-width="1920"
     inkscape:showpageshadow="false"
     inkscape:document-units="px"
     inkscape:grid-bbox="true"
     showgrid="false"
     inkscape:current-layer="layer9"
     inkscape:cy="70.710678"
     inkscape:cx="-49.497475"
     inkscape:zoom="1.4142136"
     inkscape:pageshadow="2"
     inkscape:pageopacity="0.0"
     borderopacity="0.25490196"
     bordercolor="#666666"
     pagecolor="#ffffff"
     id="base"
     fill="#f57900"
     stroke="#ef2929"
     inkscape:deskcolor="#d1d1d1">
    <inkscape:grid
       originy="8"
       originx="8"
       empspacing="4"
       visible="true"
       enabled="true"
       spacingy="2"
       spacingx="2"
       id="grid5883"
       type="xygrid" />
    <sodipodi:guide
       inkscape:color="rgb(0,0,255)"
       inkscape:label=""
       inkscape:locked="false"
       id="guide1073"
       orientation="0,1"
       position="72,16" />
    <sodipodi:guide
       inkscape:color="rgb(0,0,255)"
       inkscape:label=""
       inkscape:locked="false"
       id="guide1075"
       orientation="1,0"
       position="20,72" />
    <sodipodi:guide
       inkscape:color="rgb(0,0,255)"
       inkscape:label=""
       inkscape:locked="false"
       id="guide1099"
       orientation="0,1"
       position="72,112" />
    <sodipodi:guide
       inkscape:color="rgb(0,0,255)"
       inkscape:label=""
       inkscape:locked="false"
       id="guide993"
       orientation="0,1"
       position="72,136" />
    <sodipodi:guide
       inkscape:color="rgb(0,0,255)"
       inkscape:label=""
       inkscape:locked="false"
       id="guide995"
       orientation="1,0"
       position="112,72" />
    <sodipodi:guide
       inkscape:color="rgb(0,0,255)"
       inkscape:label=""
       inkscape:locked="false"
       id="guide867"
       orientation="1,0"
       position="8.0000001,72" />
    <sodipodi:guide
       inkscape:color="rgb(0,0,255)"
       inkscape:label=""
       inkscape:locked="false"
       id="guide869"
       orientation="1,0"
       position="128,72" />
    <sodipodi:guide
       inkscape:color="rgb(0,0,255)"
       inkscape:label=""
       inkscape:locked="false"
       id="guide871"
       orientation="0,1"
       position="72,124" />
    <inkscape:grid
       originy="8"
       originx="8"
       dotted="true"
       empopacity="0.08627451"
       empcolor="#000000"
       opacity="0.49019608"
       color="#000000"
       empspacing="8"
       spacingy="1"
       spacingx="1"
       id="grid873"
       type="xygrid" />
    <sodipodi:guide
       inkscape:color="rgb(0,0,255)"
       inkscape:label=""
       inkscape:locked="false"
       id="guide877"
       orientation="1,0"
       position="32,72" />
    <sodipodi:guide
       inkscape:color="rgb(0,0,255)"
       inkscape:label=""
       inkscape:locked="false"
       id="guide879"
       orientation="1,0"
       position="124,72" />
    <sodipodi:guide
       inkscape:color="rgb(0,0,255)"
       inkscape:label=""
       inkscape:locked="false"
       id="guide881"
       orientation="0,1"
       position="72,128" />
    <sodipodi:guide
       inkscape:color="rgb(0,0,255)"
       inkscape:label=""
       inkscape:locked="false"
       id="guide883"
       orientation="0,1"
       position="72,20" />
    <sodipodi:guide
       inkscape:color="rgb(0,0,255)"
       inkscape:label=""
       inkscape:locked="false"
       id="guide885"
       orientation="1,0"
       position="16,72" />
    <sodipodi:guide
       inkscape:color="rgb(0,0,255)"
       inkscape:label=""
       inkscape:locked="false"
       id="guide887"
       orientation="1,0"
       position="136,72" />
    <sodipodi:guide
       inkscape:color="rgb(0,0,255)"
       inkscape:label=""
       inkscape:locked="false"
       id="guide897"
       orientation="0,1"
       position="72,8" />
    <sodipodi:guide
       inkscape:color="rgb(0,0,255)"
       inkscape:label=""
       inkscape:locked="false"
       id="guide899"
       orientation="0,1"
       position="72,32" />
    <sodipodi:guide
       inkscape:color="rgb(0,0,255)"
       inkscape:label=""
       inkscape:locked="false"
       id="guide950"
       orientation="-0.70710678,0.70710678"
       position="264,264" />
    <sodipodi:guide
       inkscape:color="rgb(0,0,255)"
       inkscape:label=""
       inkscape:locked="false"
       id="guide952"
       orientation="0.70710678,0.70710678"
       position="72,72" />
  </sodipodi:namedview>
  <metadata
     id="metadata4">
    <rdf:RDF>
      <cc:Work
         rdf:about="">
        <dc:format>image/svg+xml</dc:format>
        <dc:type
           rdf:resource="http://purl.org/dc/dcmitype/StillImage" />
        <dc:creator>
          <cc:Agent>
            <dc:title>GNOME Design Team</dc:title>
          </cc:Agent>
        </dc:creator>
        <dc:source />
        <cc:license
           rdf:resource="http://creativecommons.org/licenses/by-sa/4.0/" />
        <dc:title>Adwaita Icon Template</dc:title>
        <dc:subject>
          <rdf:Bag />
        </dc:subject>
        <dc:date />
        <dc:rights>
          <cc:Agent>
            <dc:title />
          </cc:Agent>
        </dc:rights>
        <dc:publisher>
          <cc:Agent>
            <dc:title />
          </cc:Agent>
        </dc:publisher>
        <dc:identifier />
        <dc:relation />
        <dc:language />
        <dc:coverage />
        <dc:description />
        <dc:contributor>
          <cc:Agent>
            <dc:title />
          </cc:Agent>
        </dc:contributor>
      </cc:Work>
      <cc:License
         rdf:about="http://creativecommons.org/licenses/by-sa/4.0/">
        <cc:permits
           rdf:resource="http://creativecommons.org/ns#Reproduction" />
        <cc:permits
           rdf:resource="http://creativecommons.org/ns#Distribution" />
        <cc:requires
           rdf:resource="http://creativecommons.org/ns#Notice" />
        <cc:requires
           rdf:resource="http://creativecommons.org/ns#Attribution" />
        <cc:permits
           rdf:resource="http://creativecommons.org/ns#DerivativeWorks" />
        <cc:requires
           rdf:resource="http://creativecommons.org/ns#ShareAlike" />
      </cc:License>
    </rdf:RDF>
  </metadata>
  <g
     transform="translate(8,-156)"
     style="display:inline"
     inkscape:groupmode="layer"
     inkscape:label="App Icon"
     id="layer1">
    <g
       sodipodi:insensitive="true"
       style="display:inline"
       inkscape:label="template"
       id="layer4"
       inkscape:groupmode="layer">
      <rect
         style="display:inline;overflow:visible;visibility:visible;fill:#f0f0f0;fill-opacity:0;fill-rule:nonzero;stroke:none;stroke-width:0.5;marker:none;enable-background:accumulate"
         id="hicolor"
         width="128"
         height="128"
         x="9.2651362e-08"
         y="172"
         inkscape:label="0" />
      <rect
         inkscape:label="0"
         y="172"
         x="160"
         height="16"
         width="16"
         id="symbolic"
         style="display:inline;overflow:visible;visibility:visible;fill:#f0f0f0;fill-opacity:0;fill-rule:nonzero;stroke:none;stroke-width:0.5;marker:none;enable-background:accumulate" />
    </g>
    <g
       style="display:none"
       inkscape:label="baseplate"
       id="layer2"
       inkscape:groupmode="layer"
       sodipodi:insensitive="true">
      <g
         inkscape:export-ydpi="12"
         inkscape:export-xdpi="12"
         id="g12027"
         transform="matrix(7.9911709,0,0,8.0036407,-167.7909,-4846.0776)"
         style="display:inline;fill:#000000;enable-background:new" />
      <rect
         inkscape:label="0"
         y="172"
         x="9.2651362e-08"
         height="128"
         width="128"
         id="128"
         style="display:inline;overflow:visible;visibility:visible;fill:#f0f0f0;fill-opacity:1;fill-rule:nonzero;stroke:none;stroke-width:0.5;marker:none;enable-background:accumulate" />
      <g
         transform="translate(-24,24)"
         style="fill:none;fill-opacity:0.25098;stroke:#a579b3;stroke-opacity:1"
         id="g883" />
      <g
         transform="translate(-24,24)"
         style="fill:none;fill-opacity:0.25098;stroke:#a579b3;stroke-opacity:1"
         id="g900" />
      <rect
         style="display:inline;overflow:visible;visibility:visible;fill:#f0f0f0;fill-opacity:1;fill-rule:nonzero;stroke:none;stroke-width:0.5;marker:none;enable-background:accumulate"
         id="16"
         width="16"
         height="16"
         x="160"
         y="172"
         inkscape:label="" />
      <text
         inkscape:label="icon-name"
         id="text863"
         y="167"
         x="0"
         style="font-style:normal;font-variant:normal;font-weight:bold;font-stretch:normal;font-size:4px;line-height:125%;font-family:Cantarell;-inkscape-font-specification:'Cantarell, Bold';text-align:start;writing-mode:lr-tb;text-anchor:start;display:inline;fill:#000000;fill-opacity:1;stroke:none;stroke-width:0.332649;enable-background:new"
         xml:space="preserve"><tspan
           y="167"
           x="0"
           id="tspan861"
           sodipodi:role="line"
           style="font-size:4px;stroke-width:0.332649">Hicolor</tspan></text>
      <text
         xml:space="preserve"
         style="font-style:normal;font-variant:normal;font-weight:bold;font-stretch:normal;font-size:4px;line-height:125%;font-family:Cantarell;-inkscape-font-specification:'Cantarell, Bold';text-align:start;writing-mode:lr-tb;text-anchor:start;display:inline;fill:#000000;fill-opacity:1;stroke:none;stroke-width:0.332649;enable-background:new"
         x="160"
         y="167"
         id="text867"
         inkscape:label="icon-name"><tspan
           style="font-size:4px;stroke-width:0.332649"
           sodipodi:role="line"
           id="tspan865"
           x="160"
           y="167">Symbolic</tspan></text>
    </g>
    <g
       style="display:inline"
       inkscape:label="icons"
       id="layer9"
       inkscape:groupmode="layer">
      <g
         transform="translate(0,8)"
         id="g1454" />
      <g
         transform="translate(-940,8)"
         id="g2091" />
      <g
         transform="translate(0.0021,4)"
         id="g2295" />
      <rect
         ry="9.077342"
         rx="8.7213678"
         y="188"
         x="19.999998"
         height="104"
         width="88"
         id="rect978"
         style="display:inline;fill:url(#linearGradient1115);fill-opacity:1;stroke:none;stroke-width:8.92538;stroke-linecap:butt;stroke-linejoin:miter;stroke-miterlimit:4;stroke-dasharray:none;stroke-dashoffset:0;stroke-opacity:1;marker:none;marker-start:none;marker-mid:none;marker-end:none;paint-order:normal;enable-background:new" />
      <path
         id="rect942-6"
         style="display:inline;fill:#000000;fill-opacity:0.34999999;stroke:none;stroke-width:8.74862;stroke-linecap:butt;stroke-linejoin:miter;stroke-miterlimit:4;stroke-dasharray:none;stroke-dashoffset:0;stroke-opacity:1;marker:none;marker-start:none;marker-mid:none;marker-end:none;paint-order:normal;enable-background:new;opacity:1"
         d="M 20 278.92188 L 20 283.2793 C 20 288.11093 23.88907 292 28.720703 292 L 99.279297 292 C 104.11093 292 108 288.11093 108 283.2793 L 108 278.92188 C 108 283.95072 104.11093 288 99.279297 288 L 28.720703 288 C 23.88907 288 20 283.95072 20 278.92188 z " />
      <rect
         y="250.00002"
         x="27.999998"
         height="30.000002"
         width="72"
         id="rect962"
         style="display:inline;fill:#deddda;fill-opacity:1;stroke:none;stroke-width:8.00002;stroke-linecap:butt;stroke-linejoin:round;stroke-miterlimit:4;stroke-dasharray:none;stroke-dashoffset:0;stroke-opacity:1;enable-background:new"
         rx="4"
         ry="4" />
      <rect
         style="display:inline;fill:#ffffff;fill-opacity:1;stroke:none;stroke-width:8.09249;stroke-linecap:butt;stroke-linejoin:round;stroke-miterlimit:4;stroke-dasharray:none;stroke-dashoffset:0;stroke-opacity:1;enable-background:new"
         id="rect904"
         width="72"
         height="78"
         x="27.999998"
         y="196"
         rx="4"
         ry="4" />
      <g
         style="display:inline;stroke:#5e5c64;enable-background:new"
         id="g958"
         transform="translate(7.9999923,32.000005)" />
      <path
         style="display:inline;fill:#c0bfbc;fill-opacity:1;stroke:none;stroke-width:8;stroke-linecap:butt;stroke-linejoin:round;stroke-miterlimit:4;stroke-dasharray:none;stroke-dashoffset:0;stroke-opacity:1;enable-background:new"
         d="m 43.99999,184.00001 c -2.216,0 -4,1.78399 -4,4 v 14 h 48 v -14 c 0,-2.21601 -1.80627,-4.31339 -4,-4 h -14 l -6,7 -6,-7 z"
         id="rect920"
         inkscape:connector-curvature="0"
         sodipodi:nodetypes="ssccsscccs" />
      <circle
         style="display:inline;fill:none;fill-opacity:1;stroke:#c0bfbc;stroke-width:4;stroke-linecap:butt;stroke-linejoin:round;stroke-miterlimit:4;stroke-dasharray:none;stroke-dashoffset:0;stroke-opacity:1;enable-background:new"
         id="path925"
         cx="63.999981"
         cy="184"
         r="6" />
      <rect
         style="display:inline;fill:#9a9996;fill-opacity:1;stroke:none;stroke-width:4;stroke-linecap:butt;stroke-linejoin:round;stroke-miterlimit:4;stroke-dasharray:none;stroke-dashoffset:0;stroke-opacity:1;enable-background:new"
         id="rect927"
         width="48"
         height="4"
         x="39.999981"
         y="200" />
      <path
         id="rect10924"
         style="color:#000000;fill:#000000;stroke-linecap:round;stroke-linejoin:round;stroke-dashoffset:9.8"
         d="M 165 173 C 163.3553 173 162 174.3553 162 176 L 162 184 C 162 185.6447 163.3553 187 165 187 L 171 187 C 172.6447 187 174 185.6447 174 184 L 174 176 C 174 174.3553 172.6447 173 171 173 L 171 175 C 171.5713 175 172 175.4287 172 176 L 172 184 C 172 184.5713 171.5713 185 171 185 L 165 185 C 164.4287 185 164 184.5713 164 184 L 164 176 C 164 175.4287 164.4287 175 165 175 L 165 173 z " />
      <path
         style="color:#000000;fill:#000000;stroke-linecap:round;stroke-linejoin:round;-inkscape-stroke:none"
         d="m 173,176 a 1,1 0 0 0 -0.70703,0.29297 L 168,180.58594 l -1.29297,-1.29297 a 1,1 0 0 0 -1.41406,0 1,1 0 0 0 0,1.41406 l 2,2 a 1.0001,1.0001 0 0 0 1.41406,0 l 5,-5 a 1,1 0 0 0 0,-1.41406 A 1,1 0 0 0 173,176 Z"
         id="path10926" />
      <rect
         style="opacity:1;fill:#000000;fill-opacity:1;stroke:none;stroke-width:8;stroke-linecap:round;stroke-linejoin:round;stroke-dashoffset:9.8;stroke-opacity:1"
         id="rect31394"
         width="4"
         height="3"
         x="166"
         y="172" />
      <g
         transform="translate(6.99999,16.000005)"
         id="g37250"
         style="display:inline;stroke:#77767b;stroke-linecap:round;stroke-linejoin:round;enable-background:new">
        <path
           style="fill:none;stroke:#77767b;stroke-width:4;stroke-linecap:round;stroke-linejoin:round;stroke-miterlimit:4;stroke-dasharray:none;stroke-opacity:1"
           d="m 33,221 5,5 9,-9"
           id="path37248"
           inkscape:connector-curvature="0"
           sodipodi:nodetypes="ccc" />
      </g>
      <path
         sodipodi:nodetypes="ccccc"
         inkscape:connector-curvature="0"
         id="path37252"
         d="M 63.99999,216.00001 H 86 v 4 H 63.99999 Z"
         style="display:inline;fill:#c0bfbc;fill-opacity:1;stroke:none;stroke-width:5.72542;stroke-linecap:round;stroke-linejoin:round;stroke-miterlimit:4;stroke-dasharray:none;stroke-dashoffset:0;stroke-opacity:1;marker:none;marker-start:none;marker-mid:none;marker-end:none;paint-order:normal;enable-background:new" />
      <g
         style="display:inline;stroke:#77767b;stroke-linecap:round;stroke-linejoin:round;enable-background:new"
         id="g37258"
         transform="translate(6.99999,-1.999995)">
        <path
           sodipodi:nodetypes="ccc"
           inkscape:connector-curvature="0"
           id="path37256"
           d="m 33,219 5,5 9,-9"
           style="fill:none;stroke:#77767b;stroke-width:4;stroke-linecap:round;stroke-linejoin:round;stroke-miterlimit:4;stroke-dasharray:none;stroke-opacity:1" />
      </g>
      <g
         style="display:inline;stroke:#77767b;stroke-linecap:round;stroke-linejoin:round;enable-background:new"
         id="g37262"
         transform="translate(6.99999,36.000005)">
        <path
           sodipodi:nodetypes="ccc"
           inkscape:connector-curvature="0"
           id="path37260"
           d="m 33,221 5,5 9,-9"
           style="fill:none;stroke:#77767b;stroke-width:4;stroke-linecap:round;stroke-linejoin:round;stroke-miterlimit:4;stroke-dasharray:none;stroke-opacity:1" />
      </g>
      <path
         style="display:inline;fill:#c0bfbc;fill-opacity:1;stroke:none;stroke-width:5.72542;stroke-linecap:round;stroke-linejoin:round;stroke-miterlimit:4;stroke-dasharray:none;stroke-dashoffset:0;stroke-opacity:1;marker:none;marker-start:none;marker-mid:none;marker-end:none;paint-order:normal;enable-background:new"
         d="m 63.999993,236 h 26.000011 v 4 H 63.999993 Z"
         id="path37264"
         inkscape:connector-curvature="0"
         sodipodi:nodetypes="ccccc" />
      <path
         sodipodi:nodetypes="ccccc"
         inkscape:connector-curvature="0"
         id="path38512"
         d="m 63.99999,256 h 18 v 4 h -18 z"
         style="display:inline;fill:#c0bfbc;fill-opacity:1;stroke:none;stroke-width:5.72542;stroke-linecap:round;stroke-linejoin:round;stroke-miterlimit:4;stroke-dasharray:none;stroke-dashoffset:0;stroke-opacity:1;marker:none;marker-start:none;marker-mid:none;marker-end:none;paint-order:normal;enable-background:new" />
    </g>
    <g
       sodipodi:insensitive="true"
       style="display:none"
       inkscape:label="grid"
       id="layer3"
       inkscape:groupmode="layer">
      <circle
         style="display:inline;opacity:0.1;vector-effect:none;fill:none;fill-opacity:1;stroke:#000000;stroke-width:0.99;stroke-linecap:butt;stroke-linejoin:miter;stroke-miterlimit:4;stroke-dasharray:0.99, 0.99;stroke-dashoffset:0;stroke-opacity:1;marker:none;marker-start:none;marker-mid:none;marker-end:none;paint-order:normal;enable-background:new"
         id="circle2892"
         r="59.504131"
         cy="236"
         cx="64.000031" />
      <rect
         style="display:inline;opacity:0.1;vector-effect:none;fill:none;fill-opacity:1;stroke:#000000;stroke-width:0.99;stroke-linecap:butt;stroke-linejoin:miter;stroke-miterlimit:4;stroke-dasharray:0.99, 0.99;stroke-dashoffset:0;stroke-opacity:1;marker:none;marker-start:none;marker-mid:none;marker-end:none;paint-order:normal;enable-background:new"
         id="rect2894"
         width="87.009987"
         height="111.01005"
         x="20.495007"
         y="180.49496"
         rx="8.701004"
         ry="7.9292889" />
      <rect
         style="display:inline;opacity:0.1;vector-effect:none;fill:none;fill-opacity:1;stroke:#000000;stroke-width:0.99;stroke-linecap:butt;stroke-linejoin:miter;stroke-miterlimit:4;stroke-dasharray:0.99, 0.99;stroke-dashoffset:0;stroke-opacity:1;marker:none;marker-start:none;marker-mid:none;marker-end:none;paint-order:normal;enable-background:new"
         id="rect2896"
         width="103.00952"
         height="103.00952"
         x="12.495266"
         y="184.49524"
         rx="7.9238095"
         ry="7.9238095" />
      <rect
         style="display:inline;opacity:0.1;vector-effect:none;fill:none;fill-opacity:1;stroke:#000000;stroke-width:0.99;stroke-linecap:butt;stroke-linejoin:miter;stroke-miterlimit:4;stroke-dasharray:0.99, 0.99;stroke-dashoffset:0;stroke-opacity:1;marker:none;marker-start:none;marker-mid:none;marker-end:none;paint-order:normal;enable-background:new"
         id="rect2898"
         width="111.01004"
         height="87.010048"
         x="8.4950066"
         y="200.49496"
         rx="7.9292889"
         ry="8.701005" />
      <path
         style="display:inline;fill:none;stroke:#62a0ea;stroke-width:2;stroke-linecap:butt;stroke-linejoin:miter;stroke-miterlimit:4;stroke-dasharray:none;stroke-opacity:1;enable-background:new"
         d="M 2.6203015e-5,288.99999 H 128.00003"
         id="path2900"
         inkscape:connector-curvature="0" />
    </g>
  </g>
</svg>
